datadelimiting
…
The biggest benefit I can think of is having all of the scripts and project files in one place. This does wonders for reproducibility and organization. Furthermore, there is no need to setwd at the beginning of each project, since it is automatic (and that makes access to project files much easier). Also, version control is a great feature.

What is git and what is github?

Git is an open source project system that allows development and pushing of projects and code. Github is the platform where “repositories” are made that allow people to store code, files, data, and more. Github can also be used to run websites and even games, where someone can run their finalized projects and display the information to the public. “Pushing” and management of code allows for easy cross-platform collaboration.

What are the two main differences between a tibble and data.frame?

Tibble is a tidyverse specific data frame. With a tibble, the default print() method is fancier, we get information on the number of observations, columns, and since we only see the first few rows and columns it doesn’t clog up our output space. Tibbles also incorporate lazy loading, which means that their code is not incorporated into the memory until it is actually activated. This means they are lazy and complain more, which allows us to notice problems much earlier than data.frames.

Rewrite the following nested function call using BaseR’s chaining operator:

arrange(filter(select(as_tibble(iris), starts_with("Petal"), Species), Petal.Length < 1.55), Species)

# A tibble: 37 × 3
   Petal.Length Petal.Width Species
          <dbl>       <dbl> <fct>  
 1          1.4         0.2 setosa 
 2          1.4         0.2 setosa 
 3          1.3         0.2 setosa 
 4          1.5         0.2 setosa 
 5          1.4         0.2 setosa 
 6          1.4         0.3 setosa 
 7          1.5         0.2 setosa 
 8          1.4         0.2 setosa 
 9          1.5         0.1 setosa 
10          1.5         0.2 setosa 
# ℹ 27 more rows

Note, arrange(species) is actually optional, but I think it’s GPP to include it, since it is a step that was done above.

iris |> 
  arrange(Species) |>
  as_tibble() |>
  select(starts_with("Petal"), Species) |>
  filter(Petal.Length<1.55)

# A tibble: 37 × 3
   Petal.Length Petal.Width Species
          <dbl>       <dbl> <fct>  
 1          1.4         0.2 setosa 
 2          1.4         0.2 setosa 
 3          1.3         0.2 setosa 
 4          1.5         0.2 setosa 
 5          1.4         0.2 setosa 
 6          1.4         0.3 setosa 
 7          1.5         0.2 setosa 
 8          1.4         0.2 setosa 
 9          1.5         0.1 setosa 
10          1.5         0.2 setosa 
# ℹ 27 more rows
…
Rows: 214 Columns: 11
── Column specification ────────────────────────────────────────────────────────
Delimiter: ","
dbl (11): Id, RI, Na, Mg, Al, Si, K, Ca, Ba, Fe, Type_of_Glass

ℹ Use `spec()` to retrieve the full column specification for this data.
ℹ Specify the column types or set `show_col_types = FALSE` to quiet this message.

glass_data

# A tibble: 214 × 11
      Id    RI    Na    Mg    Al    Si     K    Ca    Ba    Fe Type_of_Glass
   <dbl> <dbl> <dbl> <dbl> <dbl> <dbl> <dbl> <dbl> <dbl> <dbl>         <dbl>
 1     1  1.52  13.6  4.49  1.1   71.8  0.06  8.75     0  0                1
 2     2  1.52  13.9  3.6   1.36  72.7  0.48  7.83     0  0                1
 3     3  1.52  13.5  3.55  1.54  73.0  0.39  7.78     0  0                1
 4     4  1.52  13.2  3.69  1.29  72.6  0.57  8.22     0  0                1
 5     5  1.52  13.3  3.62  1.24  73.1  0.55  8.07     0  0                1
 6     6  1.52  12.8  3.61  1.62  73.0  0.64  8.07     0  0.26             1
 7     7  1.52  13.3  3.6   1.14  73.1  0.58  8.17     0  0                1
 8     8  1.52  13.2  3.61  1.05  73.2  0.57  8.24     0  0                1
 9     9  1.52  14.0  3.58  1.37  72.1  0.56  8.3      0  0                1
10    10  1.52  13    3.6   1.36  73.0  0.57  8.4      0  0.11             1
# ℹ 204 more rows
…
yeast_data

# A tibble: 1,484 × 10
   seq_name     mcg   gvh   alm   mit   erl   pox   vac   nuc class
   <chr>      <dbl> <dbl> <dbl> <dbl> <dbl> <dbl> <dbl> <dbl> <chr>
 1 ADT1_YEAST  0.58  0.61  0.47  0.13   0.5   0    0.48  0.22 MIT  
 2 ADT2_YEAST  0.43  0.67  0.48  0.27   0.5   0    0.53  0.22 MIT  
 3 ADT3_YEAST  0.64  0.62  0.49  0.15   0.5   0    0.53  0.22 MIT  
 4 AAR2_YEAST  0.58  0.44  0.57  0.13   0.5   0    0.54  0.22 NUC  
 5 AATM_YEAST  0.42  0.44  0.48  0.54   0.5   0    0.48  0.22 MIT  
 6 AATC_YEAST  0.51  0.4   0.56  0.17   0.5   0.5  0.49  0.22 CYT  
 7 ABC1_YEAST  0.5   0.54  0.48  0.65   0.5   0    0.53  0.22 MIT  
 8 BAF1_YEAST  0.48  0.45  0.59  0.2    0.5   0    0.58  0.34 NUC  
 9 ABF2_YEAST  0.55  0.5   0.66  0.36   0.5   0    0.49  0.22 MIT  
10 ABP1_YEAST  0.4   0.39  0.6   0.15   0.5   0    0.58  0.3  CYT  
# ℹ 1,474 more rows

yeast_data |> 
  select(-c(seq_name, nuc)) |> 
  group_by(class) |>
  mutate(across(where(is.numeric), list(mean =  mean, median = median), .names = "{.col}_{.fn}"))

# A tibble: 1,484 × 22
# Groups:   class [10]
     mcg   gvh   alm   mit   erl   pox   vac class mcg_mean mcg_median gvh_mean
   <dbl> <dbl> <dbl> <dbl> <dbl> <dbl> <dbl> <chr>    <dbl>      <dbl>    <dbl>
 1  0.58  0.61  0.47  0.13   0.5   0    0.48 MIT      0.521       0.51    0.533
 2  0.43  0.67  0.48  0.27   0.5   0    0.53 MIT      0.521       0.51    0.533
 3  0.64  0.62  0.49  0.15   0.5   0    0.53 MIT      0.521       0.51    0.533
 4  0.58  0.44  0.57  0.13   0.5   0    0.54 NUC      0.452       0.45    0.456
 5  0.42  0.44  0.48  0.54   0.5   0    0.48 MIT      0.521       0.51    0.533
 6  0.51  0.4   0.56  0.17   0.5   0.5  0.49 CYT      0.481       0.48    0.470
 7  0.5   0.54  0.48  0.65   0.5   0    0.53 MIT      0.521       0.51    0.533
 8  0.48  0.45  0.59  0.2    0.5   0    0.58 NUC      0.452       0.45    0.456
 9  0.55  0.5   0.66  0.36   0.5   0    0.49 MIT      0.521       0.51    0.533
10  0.4   0.39  0.6   0.15   0.5   0    0.58 CYT      0.481       0.48    0.470
# ℹ 1,474 more rows
# ℹ 11 more variables: gvh_median <dbl>, alm_mean <dbl>, alm_median <dbl>,
#   mit_mean <dbl>, mit_median <dbl>, erl_mean <dbl>, erl_median <dbl>,
#   pox_mean <dbl>, pox_median <dbl>, vac_mean <dbl>, vac_median <dbl>

Task 3: Combining Excel and Delimited Data

In the white_wine dataset, we read in the first two sheets, and assign the column names of sheet 2 to the column names of sheet 1. Furthermore, we create a type column indicating that all of the wine is white wine.

white_wine <- read_excel("white-wine.xlsx", sheet=excel_sheets("white-wine.xlsx")[1])
white_wine

# A tibble: 4,898 × 12
   `fixed acidity` `volatile acidity` `citric acid` `residual sugar` chlorides
             <dbl>              <dbl>         <dbl>            <dbl>     <dbl>
 1               7               0.27          0.36             20.7     0.045
 2              63               0.3           0.34              1.6     0.049
 3              81               0.28          0.4               6.9     0.05 
 4              72               0.23          0.32              8.5     0.058
 5              72               0.23          0.32              8.5     0.058
 6              81               0.28          0.4               6.9     0.05 
 7              62               0.32          0.16              7       0.045
 8               7               0.27          0.36             20.7     0.045
 9              63               0.3           0.34              1.6     0.049
10              81               0.22          0.43              1.5     0.044
# ℹ 4,888 more rows
# ℹ 7 more variables: `free sulfur dioxide` <dbl>,
#   `total sulfur dioxide` <dbl>, density <dbl>, pH <dbl>, sulphates <dbl>,
#   alcohol <dbl>, quality <dbl>
…
colnames(white_wine) <- white_wine2$Variables
white_wine

# A tibble: 4,898 × 12
   fixed_acidity volatile_acidity citric_acid residual_sugar chlorides
           <dbl>            <dbl>       <dbl>          <dbl>     <dbl>
 1             7             0.27        0.36           20.7     0.045
 2            63             0.3         0.34            1.6     0.049
 3            81             0.28        0.4             6.9     0.05 
 4            72             0.23        0.32            8.5     0.058
 5            72             0.23        0.32            8.5     0.058
 6            81             0.28        0.4             6.9     0.05 
 7            62             0.32        0.16            7       0.045
 8             7             0.27        0.36           20.7     0.045
 9            63             0.3         0.34            1.6     0.049
10            81             0.22        0.43            1.5     0.044
# ℹ 4,888 more rows
# ℹ 7 more variables: free_sulfur_dioxide <dbl>, total_sulfur_dioxide <dbl>,
#   density <dbl>, pH <dbl>, sulphates <dbl>, alcohol <dbl>, quality <dbl>
…
In the red_wine dataset, we follow the same process, now denoting the type column as red.

red_wine <- read_delim("red-wine.csv", delim = ';')

Rows: 1599 Columns: 12
── Column specification ────────────────────────────────────────────────────────
Delimiter: ";"
dbl (12): fixed acidity, volatile acidity, citric acid, residual sugar, chlo...

ℹ Use `spec()` to retrieve the full column specification for this data.
ℹ Specify the column types or set `show_col_types = FALSE` to quiet this message.

red_wine

# A tibble: 1,599 × 12
   `fixed acidity` `volatile acidity` `citric acid` `residual sugar` chlorides
             <dbl>              <dbl>         <dbl>            <dbl>     <dbl>
 1             7.4               0.7           0                 1.9     0.076
 2             7.8               0.88          0                 2.6     0.098
 3             7.8               0.76          0.04              2.3     0.092
 4            11.2               0.28          0.56              1.9     0.075
 5             7.4               0.7           0                 1.9     0.076
 6             7.4               0.66          0                 1.8     0.075
 7             7.9               0.6           0.06              1.6     0.069
 8             7.3               0.65          0                 1.2     0.065
 9             7.8               0.58          0.02              2       0.073
10             7.5               0.5           0.36              6.1     0.071
# ℹ 1,589 more rows
# ℹ 7 more variables: `free sulfur dioxide` <dbl>,
#   `total sulfur dioxide` <dbl>, density <dbl>, pH <dbl>, sulphates <dbl>,
#   alcohol <dbl>, quality <dbl>

colnames(red_wine) <- white_wine2$Variables
red_wine$type <- "red"
red_wine

# A tibble: 1,599 × 13
   fixed_acidity volatile_acidity citric_acid residual_sugar chlorides
           <dbl>            <dbl>       <dbl>          <dbl>     <dbl>
 1           7.4             0.7         0               1.9     0.076
 2           7.8             0.88        0               2.6     0.098
 3           7.8             0.76        0.04            2.3     0.092
 4          11.2             0.28        0.56            1.9     0.075
 5           7.4             0.7         0               1.9     0.076
 6           7.4             0.66        0               1.8     0.075
 7           7.9             0.6         0.06            1.6     0.069
 8           7.3             0.65        0               1.2     0.065
 9           7.8             0.58        0.02            2       0.073
10           7.5             0.5         0.36            6.1     0.071
# ℹ 1,589 more rows
# ℹ 8 more variables: free_sulfur_dioxide <dbl>, total_sulfur_dioxide <dbl>,
#   density <dbl>, pH <dbl>, sulphates <dbl>, alcohol <dbl>, quality <dbl>,
#   type <chr>

To combine the two datasets, we bind the rows. We then filter by a specific quality and alcohol amount, sort by descending quality, select relevant columns, and then mutate across alcohol, calculating the mean and standard deviation grouped by quality.

all_wine <- dplyr::bind_rows(white_wine, red_wine)
all_wine |> 
  filter(quality > 6.5, alcohol <132) |>
  arrange(desc(quality)) |>
  select(fixed_acidity, volatile_acidity, citric_acid, alcohol, type, quality) |>
  group_by(quality) |>
  mutate(across(alcohol, list(mean =mean, sd = sd), .names = "{.col}_{.fn}"))

# A tibble: 1,206 × 8
# Groups:   quality [3]
   fixed_acidity volatile_acidity citric_acid alcohol type  quality alcohol_mean
           <dbl>            <dbl>       <dbl>   <dbl> <chr>   <dbl>        <dbl>
 1            91             0.27        0.45     104 white       9        122. 
 2            66             0.36        0.29     124 white       9        122. 
 3            74             0.24        0.36     125 white       9        122. 
 4            69             0.36        0.34     127 white       9        122. 
 5            71             0.26        0.49     129 white       9        122. 
 6            62             0.66        0.48     128 white       8         94.1
 7            62             0.66        0.48     128 white       8         94.1
 8            68             0.26        0.42     105 white       8         94.1
 9            67             0.23        0.31     107 white       8         94.1
10            67             0.23        0.31     107 white       8         94.1
# ℹ 1,196 more rows
# ℹ 1 more variable: alcohol_sd <dbl>
